TF	term	WhichTF_term_partial_score	WhichTF_score
NFKB1	MP:0002145	0.7071067811865475	10.918336092829584
NFKB1	MP:0001828	0.7071067811865475	10.918336092829584
NFKB1	MP:0005094	0.5773502691896258	10.918336092829584
NFKB1	MP:0002357	0.35355339059327373	10.918336092829584
NFKB1	MP:0020174	0.35355339059327373	10.918336092829584
NFKB1	MP:0000701	0.2773500981126146	10.918336092829584
NFKB1	MP:0002339	0.2672612419124244	10.918336092829584
NFKB1	MP:0005000	0.2581988897471611	10.918336092829584
NFKB1	MP:0001844	0.24253562503633297	10.918336092829584
NFKB1	MP:0008073	0.23570226039551587	10.918336092829584
NFKB1	MP:0020175	0.23570226039551587	10.918336092829584
NFKB1	MP:0000702	0.22360679774997896	10.918336092829584
NFKB1	MP:0005005	0.2182178902359924	10.918336092829584
NFKB1	MP:0005017	0.20412414523193154	10.918336092829584
NFKB1	MP:0013701	0.20412414523193154	10.918336092829584
NFKB1	MP:0020180	0.1889822365046136	10.918336092829584
NFKB1	MP:0008552	0.18257418583505536	10.918336092829584
NFKB1	MP:0002144	0.17677669529663687	10.918336092829584
NFKB1	MP:0008474	0.17677669529663687	10.918336092829584
NFKB1	MP:0002425	0.1643989873053573	10.918336092829584
NFKB1	MP:0001805	0.16222142113076254	10.918336092829584
NFKB1	MP:0002461	0.15811388300841897	10.918336092829584
NFKB1	MP:0008180	0.15617376188860607	10.918336092829584
NFKB1	MP:0008553	0.15249857033260467	10.918336092829584
NFKB1	MP:0005014	0.14907119849998599	10.918336092829584
NFKB1	MP:0005348	0.14744195615489714	10.918336092829584
NFKB1	MP:0008750	0.14586499149789456	10.918336092829584
NFKB1	MP:0004794	0.14433756729740646	10.918336092829584
NFKB1	MP:0002362	0.1414213562373095	10.918336092829584
NFKB1	MP:0005095	0.1386750490563073	10.918336092829584
NFKB1	MP:0001577	0.13483997249264842	10.918336092829584
NFKB1	MP:0003725	0.13245323570650439	10.918336092829584
NFKB1	MP:0008551	0.13018891098082389	10.918336092829584
NFKB1	MP:0008075	0.1270001270001905	10.918336092829584
NFKB1	MP:0000245	0.1259881576697424	10.918336092829584
NFKB1	MP:0002493	0.125	10.918336092829584
NFKB1	MP:0002359	0.12403473458920847	10.918336092829584
NFKB1	MP:0008752	0.12216944435630522	10.918336092829584
NFKB1	MP:0008548	0.1203858530857692	10.918336092829584
NFKB1	MP:0008472	0.11952286093343936	10.918336092829584
NFKB1	MP:0008713	0.11624763874381928	10.918336092829584
NFKB1	MP:0002497	0.11547005383792514	10.918336092829584
NFKB1	MP:0008074	0.11470786693528087	10.918336092829584
NFKB1	MP:0008182	0.11322770341445956	10.918336092829584
NFKB1	MP:0013760	0.1125087900926024	10.918336092829584
NFKB1	MP:0010183	0.11180339887498948	10.918336092829584
NFKB1	MP:0008835	0.1111111111111111	10.918336092829584
NFKB1	MP:0005463	0.10976425998969035	10.918336092829584
NFKB1	MP:0008495	0.1091089451179962	10.918336092829584
NFKB1	MP:0004816	0.10846522890932808	10.918336092829584
NFKB1	MP:0020173	0.10783277320343841	10.918336092829584
NFKB1	MP:0000609	0.10721125348377948	10.918336092829584
NFKB1	MP:0008210	0.105999788000636	10.918336092829584
NFKB1	MP:0001860	0.10540925533894598	10.918336092829584
NFKB1	MP:0010210	0.10482848367219183	10.918336092829584
NFKB1	MP:0010220	0.10259783520851541	10.918336092829584
NFKB1	MP:0013680	0.10153461651336192	10.918336092829584
NFKB1	MP:0008470	0.09712858623572641	10.918336092829584
NFKB1	MP:0000693	0.0944911182523068	10.918336092829584
NFKB1	MP:0004762	0.0827605888602368	10.918336092829584
NFKB1	MP:0002743	0.07372097807744857	10.918336092829584
RUNX3	MP:0002145	1.0	9.231772572523676
RUNX3	MP:0002357	0.5	9.231772572523676
RUNX3	MP:0010296	0.4472135954999579	9.231772572523676
RUNX3	MP:0002408	0.4082482904638631	9.231772572523676
RUNX3	MP:0002339	0.3779644730092272	9.231772572523676
RUNX3	MP:0008073	0.3333333333333333	9.231772572523676
RUNX3	MP:0001828	0.31622776601683794	9.231772572523676
RUNX3	MP:0012431	0.31622776601683794	9.231772572523676
RUNX3	MP:0005092	0.30151134457776363	9.231772572523676
RUNX3	MP:0005017	0.2886751345948129	9.231772572523676
RUNX3	MP:0012765	0.2672612419124244	9.231772572523676
RUNX3	MP:0005094	0.2581988897471611	9.231772572523676
RUNX3	MP:0002144	0.25	9.231772572523676
RUNX3	MP:0005010	0.22941573387056174	9.231772572523676
RUNX3	MP:0008077	0.21320071635561041	9.231772572523676
RUNX3	MP:0000715	0.2	9.231772572523676
RUNX3	MP:0002364	0.19611613513818404	9.231772572523676
RUNX3	MP:0008081	0.18569533817705186	9.231772572523676
RUNX3	MP:0008075	0.1796053020267749	9.231772572523676
RUNX3	MP:0008211	0.1690308509457033	9.231772572523676
RUNX3	MP:0000706	0.16666666666666666	9.231772572523676
RUNX3	MP:0003762	0.16012815380508713	9.231772572523676
RUNX3	MP:0006412	0.1543033499620919	9.231772572523676
RUNX3	MP:0008079	0.14744195615489714	9.231772572523676
RUNX3	MP:0008083	0.14285714285714285	9.231772572523676
RUNX3	MP:0008470	0.13736056394868904	9.231772572523676
RUNX3	MP:0000693	0.1336306209562122	9.231772572523676
RUNX3	MP:0000240	0.13130643285972254	9.231772572523676
RUNX3	MP:0003763	0.12126781251816648	9.231772572523676
RUNX3	MP:0013701	0.11785113019775793	9.231772572523676
RUNX3	MP:0002407	0.11785113019775793	9.231772572523676
RUNX3	MP:0004762	0.11704114719613057	9.231772572523676
RUNX3	MP:0005014	0.10540925533894598	9.231772572523676
RUNX3	MP:0002743	0.10425720702853739	9.231772572523676
RUNX3	MP:0006414	0.10314212462587934	9.231772572523676
RUNX3	MP:0004794	0.10206207261596577	9.231772572523676
RUNX3	MP:0008801	0.10206207261596577	9.231772572523676
RUNX3	MP:0010365	0.10050378152592121	9.231772572523676
RUNX3	MP:0002024	0.1	9.231772572523676
RUNX3	MP:0001577	0.09534625892455924	9.231772572523676
RUNX3	MP:0008210	0.07495316889958614	9.231772572523676
RUNX3	MP:0005095	0.06933752452815364	9.231772572523676
RUNX3	MP:0003725	0.06622661785325219	9.231772572523676
RUNX3	MP:0008074	0.06622661785325219	9.231772572523676
RUNX3	MP:0008182	0.05661385170722978	9.231772572523676
RELB	MP:0001828	0.5	4.663195352466698
RELB	MP:0005094	0.4082482904638631	4.663195352466698
RELB	MP:0020174	0.25	4.663195352466698
RELB	MP:0002339	0.2182178902359924	4.663195352466698
RELB	MP:0005348	0.20851441405707477	4.663195352466698
RELB	MP:0000701	0.19611613513818404	4.663195352466698
RELB	MP:0005017	0.16666666666666666	4.663195352466698
RELB	MP:0020175	0.16666666666666666	4.663195352466698
RELB	MP:0002144	0.14433756729740646	4.663195352466698
RELB	MP:0013701	0.14433756729740646	4.663195352466698
RELB	MP:0020180	0.1336306209562122	4.663195352466698
RELB	MP:0008211	0.11952286093343936	4.663195352466698
RELB	MP:0001805	0.11470786693528087	4.663195352466698
RELB	MP:0002461	0.11180339887498948	4.663195352466698
RELB	MP:0008180	0.11043152607484653	4.663195352466698
RELB	MP:0002362	0.1	4.663195352466698
RELB	MP:0008474	0.08838834764831843	4.663195352466698
RELB	MP:0002493	0.08838834764831843	4.663195352466698
RELB	MP:0002359	0.08770580193070293	4.663195352466698
RELB	MP:0005014	0.08606629658238704	4.663195352466698
RELB	MP:0008472	0.08451542547285165	4.663195352466698
RELB	MP:0002497	0.08164965809277261	4.663195352466698
RELB	MP:0008074	0.08111071056538127	4.663195352466698
RELB	MP:0008182	0.08006407690254357	4.663195352466698
RELB	MP:0013760	0.079555728417573	4.663195352466698
RELB	MP:0008470	0.07930515857181442	4.663195352466698
RELB	MP:0010183	0.07905694150420949	4.663195352466698
RELB	MP:0005463	0.07761505257063328	4.663195352466698
RELB	MP:0000693	0.07715167498104596	4.663195352466698
RELB	MP:0008495	0.07715167498104596	4.663195352466698
RELB	MP:0003725	0.07647191129018725	4.663195352466698
RELB	MP:0020173	0.07624928516630233	4.663195352466698
RELB	MP:0001860	0.07453559924999299	4.663195352466698
RELB	MP:0013680	0.07179581586177382	4.663195352466698
RELB	MP:0005095	0.062017367294604234	4.663195352466698
RELB	MP:0008210	0.06119900613621046	4.663195352466698
RELA	MP:0001828	0.4082482904638631	3.0641149101705354
RELA	MP:0005094	0.3333333333333333	3.0641149101705354
RELA	MP:0005000	0.18257418583505536	3.0641149101705354
RELA	MP:0001844	0.17149858514250882	3.0641149101705354
RELA	MP:0005005	0.1543033499620919	3.0641149101705354
RELA	MP:0005017	0.14433756729740646	3.0641149101705354
RELA	MP:0008552	0.12909944487358055	3.0641149101705354
RELA	MP:0005348	0.1203858530857692	3.0641149101705354
RELA	MP:0002425	0.11624763874381928	3.0641149101705354
RELA	MP:0008553	0.10783277320343841	3.0641149101705354
RELA	MP:0008750	0.10314212462587934	3.0641149101705354
RELA	MP:0013701	0.10206207261596577	3.0641149101705354
RELA	MP:0008474	0.10206207261596577	3.0641149101705354
RELA	MP:0001805	0.0936585811581694	3.0641149101705354
RELA	MP:0003725	0.0936585811581694	3.0641149101705354
RELA	MP:0008752	0.08638684255813601	3.0641149101705354
RELA	MP:0008835	0.07856742013183861	3.0641149101705354
RELA	MP:0004816	0.07669649888473704	3.0641149101705354
RELA	MP:0000609	0.07580980435789034	3.0641149101705354
RELA	MP:0010210	0.07412493166611012	3.0641149101705354
RELA	MP:0002362	0.07071067811865475	3.0641149101705354
RELA	MP:0004762	0.06757373783994859	3.0641149101705354
RELA	MP:0010183	0.06454972243679027	3.0641149101705354
RELA	MP:0005095	0.05661385170722978	3.0641149101705354
RELA	MP:0008182	0.05063696835418333	3.0641149101705354
REL	MP:0001828	0.35355339059327373	1.4226339819323817
REL	MP:0005094	0.2886751345948129	1.4226339819323817
REL	MP:0002339	0.1889822365046136	1.4226339819323817
REL	MP:0008474	0.125	1.4226339819323817
REL	MP:0008551	0.09205746178983235	1.4226339819323817
REL	MP:0008553	0.08804509063256238	1.4226339819323817
REL	MP:0002362	0.08164965809277261	1.4226339819323817
REL	MP:0005095	0.08006407690254357	1.4226339819323817
REL	MP:0008182	0.06537204504606134	1.4226339819323817
REL	MP:0003725	0.05923488777590923	1.4226339819323817
RUNX2	MP:0010296	0.31622776601683794	0.6243137071205481
RUNX2	MP:0003762	0.11322770341445956	0.6243137071205481
RUNX2	MP:0006412	0.1091089451179962	0.6243137071205481
RUNX2	MP:0003763	0.08574929257125441	0.6243137071205481
ZFP410	MP:0000706	0.11785113019775793	0.41320310755982126
ZFP410	MP:0003077	0.11396057645963795	0.41320310755982126
ZFP410	MP:0005095	0.09805806756909202	0.41320310755982126
ZFP410	MP:0002407	0.08333333333333333	0.41320310755982126
STAT2	MP:0008081	0.13130643285972254	0.3113786288191531
STAT2	MP:0008083	0.10101525445522107	0.3113786288191531
STAT2	MP:0008474	0.07905694150420949	0.3113786288191531
FOSL1	MP:0020414	0.14002800840280097	0.2818055919733259
FOSL1	MP:0010365	0.07106690545187015	0.2818055919733259
FOSL1	MP:0002024	0.07071067811865475	0.2818055919733259
MTF1	MP:0008943	0.12803687993289598	0.2550370069330865
MTF1	MP:0008942	0.1270001270001905	0.2550370069330865
BATF	MP:0008986	0.10101525445522107	0.17102925865662155
BATF	MP:0020414	0.07001400420140048	0.17102925865662155
FOSB	MP:0006414	0.07293249574894728	0.1443610671775187
FOSB	MP:0008986	0.07142857142857142	0.1443610671775187
CBFB	MP:0000715	0.1414213562373095	0.1414213562373095
SPIB	MP:0008801	0.07216878364870323	0.11839380000080565
SPIB	MP:0008182	0.046225016352102424	0.11839380000080565
BACH1	MP:0008986	0.05832118435198043	0.10260192862898519
BACH1	MP:0020414	0.04428074427700476	0.10260192862898519
FOS	MP:0020414	0.09901475429766744	0.09901475429766744
WT1	MP:0008942	0.08980265101338746	0.08980265101338746
SPIC	MP:0000245	0.0890870806374748	0.0890870806374748
FOSL2	MP:0020414	0.08084520834544433	0.08084520834544433
JUND	MP:0020414	0.06262242910851495	0.06262242910851495
BACH2	MP:0020414	0.05292561240249631	0.05292561240249631
RUNX1	MP:0005095	0.052414241836095915	0.052414241836095915
